{
    "KPlugin": {
        "Authors": [
            {
                "Email": "mklapetek@kde.org",
                "Name": "Martin Klapetek",
                "Name[ar]": "Martin Klapetek",
                "Name[az]": "Martin Klapetek",
                "Name[bg]": "Martin Klapetek",
                "Name[ca@valencia]": "Martin Klapetek",
                "Name[ca]": "Martin Klapetek",
                "Name[cs]": "Martin Klapetek",
                "Name[da]": "Martin Klapetek",
                "Name[de]": "Martin Klapetek",
                "Name[en_GB]": "Martin Klapetek",
                "Name[es]": "Martin Klapetek",
                "Name[eu]": "Martin Klapetek",
                "Name[fi]": "Martin Klapetek",
                "Name[fr]": "Martin Klapetek",
                "Name[hu]": "Martin Klapetek",
                "Name[ia]": "Martin Klapetek",
                "Name[id]": "Martin Klapetek",
                "Name[is]": "Martin Klapetek",
                "Name[it]": "Martin Klapetek",
                "Name[ja]": "Martin Klapetek",
                "Name[ka]": "Martin Klapetek",
                "Name[ko]": "Martin Klapetek",
                "Name[lt]": "Martin Klapetek",
                "Name[nl]": "Martin Klapetek",
                "Name[nn]": "Martin Klapetek",
                "Name[pl]": "Martin Klapetek",
                "Name[pt]": "Martin Klapetek",
                "Name[pt_BR]": "Martin Klapetek",
                "Name[ro]": "Martin Klapetek",
                "Name[ru]": "Martin Klapetek",
                "Name[sk]": "Martin Klapetek",
                "Name[sl]": "Martin Klapetek",
                "Name[sv]": "Martin Klapetek",
                "Name[ta]": "மார்ட்டின் கிலேப்பெட்டெக்",
                "Name[tr]": "Martin Klapetek",
                "Name[uk]": "Martin Klapetek",
                "Name[vi]": "Martin Klapetek",
                "Name[x-test]": "xxMartin Klapetekxx",
                "Name[zh_CN]": "Martin Klapetek"
            }
        ],
        "Description": "Calendar plugin for displaying public holidays",
        "Description[ar]": "ملحق للتقويم يعرض العطل العامة",
        "Description[az]": "Ümumi bayramları göstərmək üçün təqvim əlavəsi",
        "Description[bg]": "Приставка на календара за показване на публични събития",
        "Description[ca@valencia]": "Connector de calendari per a mostrar els festius oficials",
        "Description[ca]": "Connector de calendari per a mostrar els festius oficials",
        "Description[cs]": "Modul kalendáře pro zobrazování státních svátků",
        "Description[de]": "Kalendermodul zur Anzeige gesetzlicher Feiertage",
        "Description[en_GB]": "Calendar plugin for displaying public holidays",
        "Description[es]": "Complemento del calendario para mostrar días festivos nacionales",
        "Description[eu]": "Jaiegun ofizialak azaltzeko egutegi-plugina",
        "Description[fi]": "Kalenteriliitännäinen julkisten vapaapäivien näyttöön",
        "Description[fr]": "Module externe d'agenda pour l'affichage des jours fériés.",
        "Description[hu]": "Bővítmény nemzeti ünnepek megjelenítéséhez",
        "Description[ia]": "Plugin de calendario per mostrar dies feriate public",
        "Description[id]": "Plugin kalender untuk menampilkan hari libur publik",
        "Description[is]": "Dagatalsviðbót sem birtir almenna frídaga",
        "Description[it]": "Estensione calendario per visualizzare le festività pubbliche",
        "Description[ja]": "公共の祝日を表示するためのカレンダープラグイン",
        "Description[ko]": "공휴일을 표시하는 달력 플러그인",
        "Description[lt]": "Kalendoriaus priedas, skirtas valstybinių šventinių dienų rodymui",
        "Description[nl]": "Plug-in voor agenda voor tonen van publieke vrije dagen",
        "Description[nn]": "Kalendertillegg for vising av offentlege fridagar",
        "Description[pa]": "ਜਨਤਕ ਛੁੱਟੀਆਂ ਦਿਖਾਉਣ ਲਈ ਕੈਲੰਡਰ ਪਲੱਗਇਨ",
        "Description[pl]": "Wtyczka kalendarza do wyświetlania publicznych świąt",
        "Description[pt]": "'Plugin' do calendário para mostrar os feriados públicos",
        "Description[pt_BR]": "Plugin de calendário para mostrar feriados públicos",
        "Description[ro]": "Extensie de calendar pentru afișarea sărbătorilor publice",
        "Description[ru]": "Модуль календаря для отображения праздников",
        "Description[sk]": "Doplnok kalendára na zobrazovanie štátnych sviatkov",
        "Description[sl]": "Koledarski vtičnik za prikaz javnih praznikov",
        "Description[sv]": "Kalenderinsticksprogram för att visa allmänna helgdagar",
        "Description[ta]": "பொது விடுமுறைகளை காட்டும் நாள்காட்டி செருகுநிரல்",
        "Description[tr]": "Genel tatilleri görüntülemek için takvim eklentisi",
        "Description[uk]": "Додаток календаря для показу офіційних свят",
        "Description[vi]": "Phần cài cắm lịch để hiển thị các ngày lễ quốc gia",
        "Description[x-test]": "xxCalendar plugin for displaying public holidaysxx",
        "Description[zh_CN]": "显示公共节假日的日历插件",
        "Icon": "view-calendar-holiday",
        "Name": "Holidays",
        "Name[ar]": "العُطل",
        "Name[az]": "Bayramlar",
        "Name[bg]": "Почивни дни",
        "Name[ca@valencia]": "Dies festius",
        "Name[ca]": "Dies festius",
        "Name[cs]": "Svátky",
        "Name[da]": "Helligdage",
        "Name[de]": "Feiertage",
        "Name[en_GB]": "Holidays",
        "Name[es]": "Días festivos",
        "Name[eu]": "Jaiegunak",
        "Name[fi]": "Vapaapäivät",
        "Name[fr]": "Vacances",
        "Name[hu]": "Ünnepek",
        "Name[ia]": "Dies feriate",
        "Name[id]": "Hari Libur",
        "Name[is]": "Frí",
        "Name[it]": "Festività",
        "Name[ja]": "祝日",
        "Name[ka]": "დასვენებები",
        "Name[ko]": "공휴일",
        "Name[lt]": "Šventinės dienos",
        "Name[nl]": "Vakantiedagen",
        "Name[nn]": "Fridagar",
        "Name[pa]": "ਛੁੱਟੀਆਂ",
        "Name[pl]": "Święta",
        "Name[pt]": "Feriados",
        "Name[pt_BR]": "Feriados",
        "Name[ro]": "Sărbători",
        "Name[ru]": "Праздники",
        "Name[sk]": "Sviatky",
        "Name[sl]": "Prazniki",
        "Name[sv]": "Helgdagar",
        "Name[ta]": "விடுமுறைகள்",
        "Name[tr]": "Tatiller",
        "Name[uk]": "Свята",
        "Name[vi]": "Ngày lễ",
        "Name[x-test]": "xxHolidaysxx",
        "Name[zh_CN]": "节假日",
        "Name[zh_TW]": "假日"
    },
    "X-KDE-PlasmaCalendar-ConfigUi": "holidays/HolidaysConfig.qml"
}
